Amazon Delivery Performance Analysis
…
Missing Value Detection

amazon %>%
  filter(Order_Time == "NaN" & Weather == "NaN" & Traffic == "NaN") %>%
  select(Order_Time, Weather, Traffic)

## # A tibble: 91 × 3
##    Order_Time Weather Traffic
##    <chr>      <chr>   <chr>  
##  1 NaN        NaN     NaN    
##  2 NaN        NaN     NaN    
##  3 NaN        NaN     NaN    
##  4 NaN        NaN     NaN    
##  5 NaN        NaN     NaN    
##  6 NaN        NaN     NaN    
##  7 NaN        NaN     NaN    
##  8 NaN        NaN     NaN    
##  9 NaN        NaN     NaN    
## 10 NaN        NaN     NaN    
## # ℹ 81 more rows
…
